{
  "@context": [
    "https://www.w3.org/ns/credentials/v2",
    "https://w3id.org/gaia-x/development#"
  ],
  "id": "https://example.com/compliance.json",
  "type": [
    "VerifiableCredential",
    "gx:ComplianceCredential"
  ],
  "credentialSubject": {
    "id": "https://example.com/compliance.json#cs",
    "gx:evidence": [
      {
        "type": "gx:ComplianceEvidence",
        "id": "https://example.com/participant.json#",
        "gx:integrity": "sha256-a69a484c8d0b3a1a09f52412114244ba783b32622230f7528a8939b52d48afb3",
        "gx:type": "gx:LegalParticipant",
        "gx:engineVersion": "2.1.14",
        "gx:rulesVersion": "PRLD-24.04"
      },
      {
        "type": "gx:ComplianceEvidence",
        "id": "https://example.com/lrn.json#",
        "gx:integrity": "sha256-c3899dea42631aa971e43080edcfa397c8a67e730b5eae0a63033bd903051802",
        "gx:type": "gx:LegalRegistrationNumber",
        "gx:engineVersion": "2.1.14",
        "gx:rulesVersion": "PRLD-24.04"
      }
    ]
  }
}